bhavpr: Historical Equity Bhavcopy PR • nser
…
#>   CORP_IND = col_logical(),
#>   HI_52_WK = col_double(),
#>   LO_52_WK = col_double()
#> )
#> Parsed with column specification:
#> cols(
#>   SECURITY = col_character(),
#>   PREV_CL_PR = col_double(),
#>   CLOSE_PRIC = col_double(),
#>   NET_TRDQTY = col_double(),
#>   NET_TRDVAL = col_double()
#> )
head(report)
#> $`./Bc010721.csv`
#> # A tibble: 687 x 10
#>    SERIES SYMBOL SECURITY RECORD_DT BC_STRT_DT BC_END_DT EX_DT ND_STRT_DT
#>    <chr>  <chr>  <chr>    <chr>     <chr>      <chr>     <chr> <chr>     
#>  1 16     SRTRA~ Sec Red~ 07/08/20~ <NA>       <NA>      05/0~ <NA>      
#>  2 17     SRTRA~ Sec Red~ 07/08/20~ <NA>       <NA>      05/0~ <NA>      
#>  3 18     SRTRA~ Sec Red~ 07/08/20~ <NA>       <NA>      05/0~ <NA>      
#>  4 19     SRTRA~ Sec Red~ 07/08/20~ <NA>       <NA>      05/0~ <NA>      
#>  5 BE     LTI    L&T Inf~ 02/07/20~ <NA>       <NA>      01/0~ <NA>      
#>  6 BE     PDMJE~ Pudumje~ <NA>      14/08/2021 21/08/20~ 12/0~ <NA>      
#>  7 BE     LSIL   Lloyds ~ <NA>      09/07/2021 15/07/20~ 07/0~ <NA>      
#>  8 BE     BALKR~ Balkrsh~ <NA>      17/07/2021 23/07/20~ 15/0~ <NA>      
#>  9 BE     CROMP~ Crompt ~ 09/07/20~ <NA>       <NA>      08/0~ <NA>      
#> 10 BE     KIRLF~ Kirlosk~ <NA>      18/07/2021 27/07/20~ 15/0~ <NA>      
#> # ... with 677 more rows, and 2 more variables: ND_END_DT <chr>, PURPOSE <chr>
#> 
#> $`./bh010721.csv`
#> # A tibble: 345 x 5
#>    SYMBOL     SERIES SECURITY                  `HIGH/LOW` `INDEX FLAG`
#>    <chr>      <chr>  <chr>                     <chr>      <chr>       
#>  1 21STCENMGM EQ     21ST CENTURY MGMT SERVICE H          <NA>        
#>  2 396GS2022  GS     GOI LOAN  3.96% 2022      H          <NA>        
#>  3 522GS2025  GS     GOI LOAN 5.22% 2025       H          <NA>        
#>  4 AAATECH    SM     AAA TECHNOLOGIES LIMITED  H          <NA>        
#>  5 ABSLRIF6RD MF     BIRLASLAMC - ABSLRIF6RD   H          <NA>        
#>  6 ADROITINFO EQ     ADROIT INFOTECH LIMITED   H          <NA>        
#>  7 ADSL       EQ     ALLIED DIGITAL SERV. LTD  H          <NA>        
#>  8 AFFLE      BE     AFFLE (INDIA) LIMITED     H          <NA>        
#>  9 AGCNET     BE     AGC NETWORKS LIMITED      H          <NA>        
#> 10 AHLADA     EQ     AHLADA ENGINEERS LIMITED  H          <NA>        
#> # ... with 335 more rows
#> 
#> $`./corpbond010721.csv`
#> # A tibble: 144 x 15
#>    MARKET SERIES SYMBOL SECURITY PREV_CL_PR OPEN_PRICE HIGH_PRICE LOW_PRICE
#>    <chr>  <chr>  <chr>  <chr>         <dbl>      <dbl>      <dbl>     <dbl>
#>  1 N      N1     IRFC   BOND 8.~     1081       1080.      1080.     1080. 
#>  2 N      N1     NHAI   BOND 8.~     1085       1087.      1087      1083  
#>  3 N      N2     BRITA~ 8.00% S~       32.8       32.8       32.9      32.8
#>  4 N      N2     HUDCO  8.20 NC~     1225.      1232.      1232.     1216. 
#>  5 N      N2     IIFL   SEC RED~     1037.      1031.      1035.     1031. 
#>  6 N      N2     IREDA  IREDA 8~     1248.      1489       1489      1489  
#>  7 N      N2     IRFC   BOND 8.~     1238       1248       1248      1232  
#>  8 N      N2     M&MFIN 9.00% U~     1085       1090       1090      1086  
#>  9 N      N2     NABARD 7.64% T~     1247.      1237.      1249      1237  
#> 10 N      N2     NHAI   BOND 8.~     1259.      1265       1265      1258  
#> # ... with 134 more rows, and 7 more variables: CLOSE_PRICE <dbl>,
#> #   NET_TRDVAL <dbl>, NET_TRDQTY <dbl>, CORP_IND <lgl>, TRADES <dbl>,
#> #   HI_52_WK <dbl>, LO_52_WK <dbl>
#> 
#> $`./etf010721.csv`
#> # A tibble: 99 x 15
#>    MARKET SERIES SYMBOL SECURITY `PREVIOUS CLOSE~ `OPEN PRICE` `HIGH PRICE`
#>    <chr>  <chr>  <chr>  <chr>               <dbl>        <dbl>        <dbl>
#>  1 N      EQ     ABSLB~ BIRLASL~            346.         346.         347. 
#>  2 N      EQ     ABSLN~ BIRLASL~            392          393.         393. 
#>  3 N      EQ     AXISB~ AXISAMC~            346.         348.         349. 
#>  4 N      EQ     AXISB~ AXISAMC~             10.2         10.2         10.2
#>  5 N      EQ     AXISG~ AXIS MF~             40.5         40.6         41.0
#>  6 N      EQ     AXISH~ AXISAMC~             87.8         87.8         88.4
#>  7 N      EQ     AXISN~ AXISAMC~            164.         164.         175. 
#>  8 N      EQ     AXIST~ AXISAMC~            293          295          295  
#>  9 N      EQ     BANKB~ NIP IND~            350.         355          359  
#> 10 N      EQ     BSLGO~ ADITYBI~           4276.        4316         4320  
#> # ... with 89 more rows, and 8 more variables: `LOW PRICE` <dbl>, `CLOSE
#> #   PRICE` <dbl>, `NET TRADED VALUE` <dbl>, `NET TRADED QTY` <dbl>,
#> #   TRADES <dbl>, `52 WEEK HIGH` <dbl>, `52 WEEK LOW` <dbl>, UNDERLYING <chr>
#> 
#> $`./Gl010721.csv`
#> # A tibble: 168 x 5
#>    GAIN_LOSS SECURITY                  CLOSE_PRIC PREV_CL_PR PERCENT_CG
#>    <chr>     <chr>                          <dbl>      <dbl>      <dbl>
#>  1 <NA>      Nifty 50 Sec.                    NA         NA       NA   
#>  2 <NA>      <NA>                             NA         NA       NA   
#>  3 G         DR. REDDY'S LABORATORIES       5558.      5423.       2.5 
#>  4 G         GAIL (INDIA) LTD                153        150.       2.24
#>  5 G         HINDALCO  INDUSTRIES  LTD       379.       372.       1.98
#>  6 G         BAJAJ AUTO LIMITED             4205.      4134.       1.71
#>  7 G         TATA MOTORS LIMITED             344.       340.       1.37
#>  8 G         SUN PHARMACEUTICAL IND L        684.       675.       1.29
#>  9 G         OIL AND NATURAL GAS CORP.       119.       118.       0.98
#> 10 G         ASIAN PAINTS LIMITED           3022.      2993.       0.97
#> # ... with 158 more rows
#> 
#> $`./HL010721.csv`
#> # A tibble: 105 x 4
#>    SECURITY                     NEW PREVIOUS NEW_STATUS
#>    <chr>                      <dbl>    <dbl> <chr>     
#>  1 FORTIS HEALTHCARE LTD      250.    248.   H         
#>  2 HAPPIEST MINDS TECHNO LTD 1194.   1020    H         
#>  3 JSW ENERGY LIMITED         177     172.   H         
#>  4 MAGADH SUGAR & ENERGY LTD  353.    336.   H         
#>  5 MPHASIS LIMITED           2184    2144.   H         
#>  6 NITIN FIRE PROT IND. LTD.    1.4     1.35 H         
#>  7 ONE POINT ONE SOL LTD       32.8    31.3  H         
#>  8 PITTI ENGINEERING LIMITED  145     140.   H         
#>  9 PROSEED INDIA LTD            5.1     4.9  H         
#> 10 RAJRATAN GLOBAL WIRE LTD  1848    1557.   H         
#> # ... with 95 more rows
…
